2017.03.26 20:23 B C:\wamp\www\elearning\qbano\juegos\__MACOSX\juegos\juego2\documentation\assets\._.DS_Store --> elearning.sandwichcubano.com /httpdocs/elearning/qbano/juegos/__MACOSX/juegos/juego2/documentation/assets ._.DS_Store
2017.03.26 20:23 B C:\wamp\www\elearning\qbano\juegos\__MACOSX\juegos\juego2\documentation\assets\._blueprint-css --> elearning.sandwichcubano.com /httpdocs/elearning/qbano/juegos/__MACOSX/juegos/juego2/documentation/assets ._blueprint-css
2017.03.26 20:23 B C:\wamp\www\elearning\qbano\juegos\__MACOSX\juegos\juego2\documentation\assets\._images --> elearning.sandwichcubano.com /httpdocs/elearning/qbano/juegos/__MACOSX/juegos/juego2/documentation/assets ._images
2017.03.27 21:28 B C:\wamp\www\elearning\qbano\juegos\__MACOSX\juegos\juego2\documentation\assets\._.DS_Store --> elearning.sandwichcubano.com /httpdocs/elearning/qbano/juegos/__MACOSX/juegos/juego2/documentation/assets ._.DS_Store
2017.03.27 21:28 B C:\wamp\www\elearning\qbano\juegos\__MACOSX\juegos\juego2\documentation\assets\._blueprint-css --> elearning.sandwichcubano.com /httpdocs/elearning/qbano/juegos/__MACOSX/juegos/juego2/documentation/assets ._blueprint-css
2017.03.27 21:28 B C:\wamp\www\elearning\qbano\juegos\__MACOSX\juegos\juego2\documentation\assets\._images --> elearning.sandwichcubano.com /httpdocs/elearning/qbano/juegos/__MACOSX/juegos/juego2/documentation/assets ._images
2017.03.27 21:28 B C:\wamp\www\elearning\qbano\juegos\__MACOSX\juegos\juego2\documentation\assets\__.DS_Store --> elearning.sandwichcubano.com /httpdocs/elearning/qbano/juegos/__MACOSX/juegos/juego2/documentation/assets __.DS_Store
2017.03.27 21:28 B C:\wamp\www\elearning\qbano\juegos\__MACOSX\juegos\juego2\documentation\assets\__blueprint-css --> elearning.sandwichcubano.com /httpdocs/elearning/qbano/juegos/__MACOSX/juegos/juego2/documentation/assets __blueprint-css
2017.03.27 21:28 B C:\wamp\www\elearning\qbano\juegos\__MACOSX\juegos\juego2\documentation\assets\__images --> elearning.sandwichcubano.com /httpdocs/elearning/qbano/juegos/__MACOSX/juegos/juego2/documentation/assets __images
