2017.03.26 20:22 B C:\wamp\www\elearning\qbano\juegos\__MACOSX\juegos\juego2\documentation\assets\blueprint-css\plugins\buttons\._icons --> elearning.sandwichcubano.com /httpdocs/elearning/qbano/juegos/__MACOSX/juegos/juego2/documentation/assets/blueprint-css/plugins/buttons ._icons
2017.03.26 20:22 B C:\wamp\www\elearning\qbano\juegos\__MACOSX\juegos\juego2\documentation\assets\blueprint-css\plugins\buttons\._readme.txt --> elearning.sandwichcubano.com /httpdocs/elearning/qbano/juegos/__MACOSX/juegos/juego2/documentation/assets/blueprint-css/plugins/buttons ._readme.txt
2017.03.26 20:22 B C:\wamp\www\elearning\qbano\juegos\__MACOSX\juegos\juego2\documentation\assets\blueprint-css\plugins\buttons\._screen.css --> elearning.sandwichcubano.com /httpdocs/elearning/qbano/juegos/__MACOSX/juegos/juego2/documentation/assets/blueprint-css/plugins/buttons ._screen.css
2017.03.27 21:27 B C:\wamp\www\elearning\qbano\juegos\__MACOSX\juegos\juego2\documentation\assets\blueprint-css\plugins\buttons\._icons --> elearning.sandwichcubano.com /httpdocs/elearning/qbano/juegos/__MACOSX/juegos/juego2/documentation/assets/blueprint-css/plugins/buttons ._icons
2017.03.27 21:27 B C:\wamp\www\elearning\qbano\juegos\__MACOSX\juegos\juego2\documentation\assets\blueprint-css\plugins\buttons\._readme.txt --> elearning.sandwichcubano.com /httpdocs/elearning/qbano/juegos/__MACOSX/juegos/juego2/documentation/assets/blueprint-css/plugins/buttons ._readme.txt
2017.03.27 21:27 B C:\wamp\www\elearning\qbano\juegos\__MACOSX\juegos\juego2\documentation\assets\blueprint-css\plugins\buttons\._screen.css --> elearning.sandwichcubano.com /httpdocs/elearning/qbano/juegos/__MACOSX/juegos/juego2/documentation/assets/blueprint-css/plugins/buttons ._screen.css
2017.03.27 21:27 B C:\wamp\www\elearning\qbano\juegos\__MACOSX\juegos\juego2\documentation\assets\blueprint-css\plugins\buttons\__icons --> elearning.sandwichcubano.com /httpdocs/elearning/qbano/juegos/__MACOSX/juegos/juego2/documentation/assets/blueprint-css/plugins/buttons __icons
2017.03.27 21:27 B C:\wamp\www\elearning\qbano\juegos\__MACOSX\juegos\juego2\documentation\assets\blueprint-css\plugins\buttons\__readme.txt --> elearning.sandwichcubano.com /httpdocs/elearning/qbano/juegos/__MACOSX/juegos/juego2/documentation/assets/blueprint-css/plugins/buttons __readme.txt
2017.03.27 21:27 B C:\wamp\www\elearning\qbano\juegos\__MACOSX\juegos\juego2\documentation\assets\blueprint-css\plugins\buttons\__screen.css --> elearning.sandwichcubano.com /httpdocs/elearning/qbano/juegos/__MACOSX/juegos/juego2/documentation/assets/blueprint-css/plugins/buttons __screen.css
