2017.03.26 20:24 B C:\wamp\www\elearning\qbano\juegos\juego1\C2\exporters\html5\behaviors\rex_timer2\common.js --> elearning.sandwichcubano.com /httpdocs/elearning/qbano/juegos/juego1/C2/exporters/html5/behaviors/rex_timer2 common.js
2017.03.26 20:24 B C:\wamp\www\elearning\qbano\juegos\juego1\C2\exporters\html5\behaviors\rex_timer2\edittime.js --> elearning.sandwichcubano.com /httpdocs/elearning/qbano/juegos/juego1/C2/exporters/html5/behaviors/rex_timer2 edittime.js
2017.03.26 20:24 B C:\wamp\www\elearning\qbano\juegos\juego1\C2\exporters\html5\behaviors\rex_timer2\PluginIcon.ico --> elearning.sandwichcubano.com /httpdocs/elearning/qbano/juegos/juego1/C2/exporters/html5/behaviors/rex_timer2 PluginIcon.ico
2017.03.26 20:24 B C:\wamp\www\elearning\qbano\juegos\juego1\C2\exporters\html5\behaviors\rex_timer2\runtime.js --> elearning.sandwichcubano.com /httpdocs/elearning/qbano/juegos/juego1/C2/exporters/html5/behaviors/rex_timer2 runtime.js
