2017.03.26 20:42 B C:\wamp\www\elearning\qbano\Views\qboletin\plugins\tinymce\skins\lightgray\.DS_Store --> elearning.sandwichcubano.com /httpdocs/elearning/qbano/Views/qboletin/plugins/tinymce/skins/lightgray .DS_Store
2017.03.26 20:42 B C:\wamp\www\elearning\qbano\Views\qboletin\plugins\tinymce\skins\lightgray\content.inline.min.css --> elearning.sandwichcubano.com /httpdocs/elearning/qbano/Views/qboletin/plugins/tinymce/skins/lightgray content.inline.min.css
2017.03.26 20:42 B C:\wamp\www\elearning\qbano\Views\qboletin\plugins\tinymce\skins\lightgray\content.min.css --> elearning.sandwichcubano.com /httpdocs/elearning/qbano/Views/qboletin/plugins/tinymce/skins/lightgray content.min.css
2017.03.26 20:42 B C:\wamp\www\elearning\qbano\Views\qboletin\plugins\tinymce\skins\lightgray\skin.ie7.min.css --> elearning.sandwichcubano.com /httpdocs/elearning/qbano/Views/qboletin/plugins/tinymce/skins/lightgray skin.ie7.min.css
2017.03.26 20:42 B C:\wamp\www\elearning\qbano\Views\qboletin\plugins\tinymce\skins\lightgray\skin.min.css --> elearning.sandwichcubano.com /httpdocs/elearning/qbano/Views/qboletin/plugins/tinymce/skins/lightgray skin.min.css
2017.03.27 21:46 B C:\wamp\www\elearning\qbano\Views\qboletin\plugins\tinymce\skins\lightgray\.DS_Store --> elearning.sandwichcubano.com /httpdocs/elearning/qbano/Views/qboletin/plugins/tinymce/skins/lightgray .DS_Store
2017.03.27 21:46 B C:\wamp\www\elearning\qbano\Views\qboletin\plugins\tinymce\skins\lightgray\_DS_Store --> elearning.sandwichcubano.com /httpdocs/elearning/qbano/Views/qboletin/plugins/tinymce/skins/lightgray _DS_Store
