2017.03.26 17:07 B C:\wamp\www\elearning\assets\fonts\Pe-icon-7-stroke.eot --> elearning.sandwichcubano.com /httpdocs/elearning/assets/fonts Pe-icon-7-stroke.eot
2017.03.26 17:07 B C:\wamp\www\elearning\assets\fonts\Pe-icon-7-stroke.svg --> elearning.sandwichcubano.com /httpdocs/elearning/assets/fonts Pe-icon-7-stroke.svg
2017.03.26 17:08 B C:\wamp\www\elearning\assets\fonts\Pe-icon-7-stroke.ttf --> elearning.sandwichcubano.com /httpdocs/elearning/assets/fonts Pe-icon-7-stroke.ttf
2017.03.26 17:08 B C:\wamp\www\elearning\assets\fonts\Pe-icon-7-stroke.woff --> elearning.sandwichcubano.com /httpdocs/elearning/assets/fonts Pe-icon-7-stroke.woff
