2017.03.26 20:18 B C:\wamp\www\elearning\qbano\fontawesome\.DS_Store --> elearning.sandwichcubano.com /httpdocs/elearning/qbano/fontawesome .DS_Store
2017.03.26 20:18 B C:\wamp\www\elearning\qbano\fontawesome\HELP-US-OUT.txt --> elearning.sandwichcubano.com /httpdocs/elearning/qbano/fontawesome HELP-US-OUT.txt
2017.03.27 21:19 B C:\wamp\www\elearning\qbano\fontawesome\.DS_Store --> elearning.sandwichcubano.com /httpdocs/elearning/qbano/fontawesome .DS_Store
