2017.03.26 20:19 B C:\wamp\www\elearning\qbano\juegos\__MACOSX\juegos\juego1\C2\exporters\html5\behaviors\rex_timer2\._common.js --> elearning.sandwichcubano.com /httpdocs/elearning/qbano/juegos/__MACOSX/juegos/juego1/C2/exporters/html5/behaviors/rex_timer2 ._common.js
2017.03.26 20:19 B C:\wamp\www\elearning\qbano\juegos\__MACOSX\juegos\juego1\C2\exporters\html5\behaviors\rex_timer2\._edittime.js --> elearning.sandwichcubano.com /httpdocs/elearning/qbano/juegos/__MACOSX/juegos/juego1/C2/exporters/html5/behaviors/rex_timer2 ._edittime.js
2017.03.26 20:19 B C:\wamp\www\elearning\qbano\juegos\__MACOSX\juegos\juego1\C2\exporters\html5\behaviors\rex_timer2\._PluginIcon.ico --> elearning.sandwichcubano.com /httpdocs/elearning/qbano/juegos/__MACOSX/juegos/juego1/C2/exporters/html5/behaviors/rex_timer2 ._PluginIcon.ico
2017.03.26 20:19 B C:\wamp\www\elearning\qbano\juegos\__MACOSX\juegos\juego1\C2\exporters\html5\behaviors\rex_timer2\._runtime.js --> elearning.sandwichcubano.com /httpdocs/elearning/qbano/juegos/__MACOSX/juegos/juego1/C2/exporters/html5/behaviors/rex_timer2 ._runtime.js
2017.03.27 21:22 B C:\wamp\www\elearning\qbano\juegos\__MACOSX\juegos\juego1\C2\exporters\html5\behaviors\rex_timer2\._common.js --> elearning.sandwichcubano.com /httpdocs/elearning/qbano/juegos/__MACOSX/juegos/juego1/C2/exporters/html5/behaviors/rex_timer2 ._common.js
2017.03.27 21:22 B C:\wamp\www\elearning\qbano\juegos\__MACOSX\juegos\juego1\C2\exporters\html5\behaviors\rex_timer2\._edittime.js --> elearning.sandwichcubano.com /httpdocs/elearning/qbano/juegos/__MACOSX/juegos/juego1/C2/exporters/html5/behaviors/rex_timer2 ._edittime.js
2017.03.27 21:22 B C:\wamp\www\elearning\qbano\juegos\__MACOSX\juegos\juego1\C2\exporters\html5\behaviors\rex_timer2\._PluginIcon.ico --> elearning.sandwichcubano.com /httpdocs/elearning/qbano/juegos/__MACOSX/juegos/juego1/C2/exporters/html5/behaviors/rex_timer2 ._PluginIcon.ico
2017.03.27 21:22 B C:\wamp\www\elearning\qbano\juegos\__MACOSX\juegos\juego1\C2\exporters\html5\behaviors\rex_timer2\._runtime.js --> elearning.sandwichcubano.com /httpdocs/elearning/qbano/juegos/__MACOSX/juegos/juego1/C2/exporters/html5/behaviors/rex_timer2 ._runtime.js
2017.03.27 21:22 B C:\wamp\www\elearning\qbano\juegos\__MACOSX\juegos\juego1\C2\exporters\html5\behaviors\rex_timer2\__common.js --> elearning.sandwichcubano.com /httpdocs/elearning/qbano/juegos/__MACOSX/juegos/juego1/C2/exporters/html5/behaviors/rex_timer2 __common.js
2017.03.27 21:22 B C:\wamp\www\elearning\qbano\juegos\__MACOSX\juegos\juego1\C2\exporters\html5\behaviors\rex_timer2\__edittime.js --> elearning.sandwichcubano.com /httpdocs/elearning/qbano/juegos/__MACOSX/juegos/juego1/C2/exporters/html5/behaviors/rex_timer2 __edittime.js
2017.03.27 21:22 B C:\wamp\www\elearning\qbano\juegos\__MACOSX\juegos\juego1\C2\exporters\html5\behaviors\rex_timer2\__PluginIcon.ico --> elearning.sandwichcubano.com /httpdocs/elearning/qbano/juegos/__MACOSX/juegos/juego1/C2/exporters/html5/behaviors/rex_timer2 __PluginIcon.ico
2017.03.27 21:22 B C:\wamp\www\elearning\qbano\juegos\__MACOSX\juegos\juego1\C2\exporters\html5\behaviors\rex_timer2\__runtime.js --> elearning.sandwichcubano.com /httpdocs/elearning/qbano/juegos/__MACOSX/juegos/juego1/C2/exporters/html5/behaviors/rex_timer2 __runtime.js
