2017.03.26 20:22 B C:\wamp\www\elearning\qbano\juegos\__MACOSX\juegos\juego2\documentation\__MACOSX\assets\blueprint-css\._plugins --> elearning.sandwichcubano.com /httpdocs/elearning/qbano/juegos/__MACOSX/juegos/juego2/documentation/__MACOSX/assets/blueprint-css ._plugins
2017.03.26 20:22 B C:\wamp\www\elearning\qbano\juegos\__MACOSX\juegos\juego2\documentation\__MACOSX\assets\blueprint-css\._src --> elearning.sandwichcubano.com /httpdocs/elearning/qbano/juegos/__MACOSX/juegos/juego2/documentation/__MACOSX/assets/blueprint-css ._src
2017.03.27 21:26 B C:\wamp\www\elearning\qbano\juegos\__MACOSX\juegos\juego2\documentation\__MACOSX\assets\blueprint-css\._plugins --> elearning.sandwichcubano.com /httpdocs/elearning/qbano/juegos/__MACOSX/juegos/juego2/documentation/__MACOSX/assets/blueprint-css ._plugins
2017.03.27 21:26 B C:\wamp\www\elearning\qbano\juegos\__MACOSX\juegos\juego2\documentation\__MACOSX\assets\blueprint-css\._src --> elearning.sandwichcubano.com /httpdocs/elearning/qbano/juegos/__MACOSX/juegos/juego2/documentation/__MACOSX/assets/blueprint-css ._src
2017.03.27 21:26 B C:\wamp\www\elearning\qbano\juegos\__MACOSX\juegos\juego2\documentation\__MACOSX\assets\blueprint-css\__plugins --> elearning.sandwichcubano.com /httpdocs/elearning/qbano/juegos/__MACOSX/juegos/juego2/documentation/__MACOSX/assets/blueprint-css __plugins
2017.03.27 21:26 B C:\wamp\www\elearning\qbano\juegos\__MACOSX\juegos\juego2\documentation\__MACOSX\assets\blueprint-css\__src --> elearning.sandwichcubano.com /httpdocs/elearning/qbano/juegos/__MACOSX/juegos/juego2/documentation/__MACOSX/assets/blueprint-css __src
