2017.03.26 21:33 B C:\wamp\www\elearning\qbano\juegos\juego2\documentation\assets\blueprint-css\ie.css --> elearning.sandwichcubano.com /httpdocs/elearning/qbano/juegos/juego2/documentation/assets/blueprint-css ie.css
2017.03.26 21:33 B C:\wamp\www\elearning\qbano\juegos\juego2\documentation\assets\blueprint-css\print.css --> elearning.sandwichcubano.com /httpdocs/elearning/qbano/juegos/juego2/documentation/assets/blueprint-css print.css
2017.03.26 21:33 B C:\wamp\www\elearning\qbano\juegos\juego2\documentation\assets\blueprint-css\screen.css --> elearning.sandwichcubano.com /httpdocs/elearning/qbano/juegos/juego2/documentation/assets/blueprint-css screen.css
