2017.03.26 20:38 B C:\wamp\www\elearning\qbano\Views\franquiciado\.DS_Store --> elearning.sandwichcubano.com /httpdocs/elearning/qbano/Views/franquiciado .DS_Store
2017.03.26 20:38 B C:\wamp\www\elearning\qbano\Views\franquiciado\index.php --> elearning.sandwichcubano.com /httpdocs/elearning/qbano/Views/franquiciado index.php
2017.03.26 20:39 B C:\wamp\www\elearning\qbano\Views\franquiciado\quiz.php --> elearning.sandwichcubano.com /httpdocs/elearning/qbano/Views/franquiciado quiz.php
2017.03.26 20:39 B C:\wamp\www\elearning\qbano\Views\franquiciado\ver.php --> elearning.sandwichcubano.com /httpdocs/elearning/qbano/Views/franquiciado ver.php
2017.03.27 21:41 B C:\wamp\www\elearning\qbano\Views\franquiciado\.DS_Store --> elearning.sandwichcubano.com /httpdocs/elearning/qbano/Views/franquiciado .DS_Store
2017.03.27 21:41 B C:\wamp\www\elearning\qbano\Views\franquiciado\_DS_Store --> elearning.sandwichcubano.com /httpdocs/elearning/qbano/Views/franquiciado _DS_Store
