2017.03.26 20:18 B C:\wamp\www\elearning\qbano\fontawesome\scss\_animated.scss --> elearning.sandwichcubano.com /httpdocs/elearning/qbano/fontawesome/scss _animated.scss
2017.03.26 20:18 B C:\wamp\www\elearning\qbano\fontawesome\scss\_bordered-pulled.scss --> elearning.sandwichcubano.com /httpdocs/elearning/qbano/fontawesome/scss _bordered-pulled.scss
2017.03.26 20:18 B C:\wamp\www\elearning\qbano\fontawesome\scss\_core.scss --> elearning.sandwichcubano.com /httpdocs/elearning/qbano/fontawesome/scss _core.scss
2017.03.26 20:18 B C:\wamp\www\elearning\qbano\fontawesome\scss\_fixed-width.scss --> elearning.sandwichcubano.com /httpdocs/elearning/qbano/fontawesome/scss _fixed-width.scss
2017.03.26 20:18 B C:\wamp\www\elearning\qbano\fontawesome\scss\_icons.scss --> elearning.sandwichcubano.com /httpdocs/elearning/qbano/fontawesome/scss _icons.scss
2017.03.26 20:18 B C:\wamp\www\elearning\qbano\fontawesome\scss\_larger.scss --> elearning.sandwichcubano.com /httpdocs/elearning/qbano/fontawesome/scss _larger.scss
2017.03.26 20:18 B C:\wamp\www\elearning\qbano\fontawesome\scss\_list.scss --> elearning.sandwichcubano.com /httpdocs/elearning/qbano/fontawesome/scss _list.scss
2017.03.26 20:18 B C:\wamp\www\elearning\qbano\fontawesome\scss\_mixins.scss --> elearning.sandwichcubano.com /httpdocs/elearning/qbano/fontawesome/scss _mixins.scss
2017.03.26 20:18 B C:\wamp\www\elearning\qbano\fontawesome\scss\_path.scss --> elearning.sandwichcubano.com /httpdocs/elearning/qbano/fontawesome/scss _path.scss
2017.03.26 20:18 B C:\wamp\www\elearning\qbano\fontawesome\scss\_rotated-flipped.scss --> elearning.sandwichcubano.com /httpdocs/elearning/qbano/fontawesome/scss _rotated-flipped.scss
2017.03.26 20:18 B C:\wamp\www\elearning\qbano\fontawesome\scss\_screen-reader.scss --> elearning.sandwichcubano.com /httpdocs/elearning/qbano/fontawesome/scss _screen-reader.scss
2017.03.26 20:18 B C:\wamp\www\elearning\qbano\fontawesome\scss\_stacked.scss --> elearning.sandwichcubano.com /httpdocs/elearning/qbano/fontawesome/scss _stacked.scss
2017.03.26 20:18 B C:\wamp\www\elearning\qbano\fontawesome\scss\_variables.scss --> elearning.sandwichcubano.com /httpdocs/elearning/qbano/fontawesome/scss _variables.scss
2017.03.26 20:18 B C:\wamp\www\elearning\qbano\fontawesome\scss\font-awesome.scss --> elearning.sandwichcubano.com /httpdocs/elearning/qbano/fontawesome/scss font-awesome.scss
