2017.03.26 21:30 B C:\wamp\www\elearning\qbano\juegos\juego2\images\candy\slice01_01.png --> elearning.sandwichcubano.com /httpdocs/elearning/qbano/juegos/juego2/images/candy slice01_01.png
2017.03.26 21:30 B C:\wamp\www\elearning\qbano\juegos\juego2\images\candy\slice02_02.png --> elearning.sandwichcubano.com /httpdocs/elearning/qbano/juegos/juego2/images/candy slice02_02.png
2017.03.26 21:30 B C:\wamp\www\elearning\qbano\juegos\juego2\images\candy\slice03_03.png --> elearning.sandwichcubano.com /httpdocs/elearning/qbano/juegos/juego2/images/candy slice03_03.png
2017.03.26 21:30 B C:\wamp\www\elearning\qbano\juegos\juego2\images\candy\slice04_04.png --> elearning.sandwichcubano.com /httpdocs/elearning/qbano/juegos/juego2/images/candy slice04_04.png
2017.03.26 21:30 B C:\wamp\www\elearning\qbano\juegos\juego2\images\candy\slice05_05.png --> elearning.sandwichcubano.com /httpdocs/elearning/qbano/juegos/juego2/images/candy slice05_05.png
2017.03.26 21:30 B C:\wamp\www\elearning\qbano\juegos\juego2\images\candy\slice06_06.png --> elearning.sandwichcubano.com /httpdocs/elearning/qbano/juegos/juego2/images/candy slice06_06.png
2017.03.26 21:30 B C:\wamp\www\elearning\qbano\juegos\juego2\images\candy\slice07_07.png --> elearning.sandwichcubano.com /httpdocs/elearning/qbano/juegos/juego2/images/candy slice07_07.png
2017.03.26 21:30 B C:\wamp\www\elearning\qbano\juegos\juego2\images\candy\slice08_08.png --> elearning.sandwichcubano.com /httpdocs/elearning/qbano/juegos/juego2/images/candy slice08_08.png
2017.03.26 21:30 B C:\wamp\www\elearning\qbano\juegos\juego2\images\candy\slice09_09.png --> elearning.sandwichcubano.com /httpdocs/elearning/qbano/juegos/juego2/images/candy slice09_09.png
2017.03.26 21:30 B C:\wamp\www\elearning\qbano\juegos\juego2\images\candy\slice10_10.png --> elearning.sandwichcubano.com /httpdocs/elearning/qbano/juegos/juego2/images/candy slice10_10.png
2017.03.26 21:30 B C:\wamp\www\elearning\qbano\juegos\juego2\images\candy\slice11_11.png --> elearning.sandwichcubano.com /httpdocs/elearning/qbano/juegos/juego2/images/candy slice11_11.png
2017.03.26 21:30 B C:\wamp\www\elearning\qbano\juegos\juego2\images\candy\slice12_12.png --> elearning.sandwichcubano.com /httpdocs/elearning/qbano/juegos/juego2/images/candy slice12_12.png
