2017.03.26 20:38 B C:\wamp\www\elearning\qbano\Views\estudiante\.DS_Store --> elearning.sandwichcubano.com /httpdocs/elearning/qbano/Views/estudiante .DS_Store
2017.03.26 20:38 B C:\wamp\www\elearning\qbano\Views\estudiante\index.php --> elearning.sandwichcubano.com /httpdocs/elearning/qbano/Views/estudiante index.php
2017.03.26 20:38 B C:\wamp\www\elearning\qbano\Views\estudiante\quiz.php --> elearning.sandwichcubano.com /httpdocs/elearning/qbano/Views/estudiante quiz.php
2017.03.26 20:38 B C:\wamp\www\elearning\qbano\Views\estudiante\ver.php --> elearning.sandwichcubano.com /httpdocs/elearning/qbano/Views/estudiante ver.php
2017.03.27 21:41 B C:\wamp\www\elearning\qbano\Views\estudiante\.DS_Store --> elearning.sandwichcubano.com /httpdocs/elearning/qbano/Views/estudiante .DS_Store
2017.03.27 21:41 B C:\wamp\www\elearning\qbano\Views\estudiante\_DS_Store --> elearning.sandwichcubano.com /httpdocs/elearning/qbano/Views/estudiante _DS_Store
