2017.03.26 20:10 B C:\wamp\www\elearning\qbano\__MACOSX\Views\administrativo\voz\._.DS_Store --> elearning.sandwichcubano.com /httpdocs/elearning/qbano/__MACOSX/Views/administrativo/voz ._.DS_Store
2017.03.26 20:10 B C:\wamp\www\elearning\qbano\__MACOSX\Views\administrativo\voz\._dist --> elearning.sandwichcubano.com /httpdocs/elearning/qbano/__MACOSX/Views/administrativo/voz ._dist
2017.03.26 20:10 B C:\wamp\www\elearning\qbano\__MACOSX\Views\administrativo\voz\._index --> elearning.sandwichcubano.com /httpdocs/elearning/qbano/__MACOSX/Views/administrativo/voz ._index
2017.03.26 20:10 B C:\wamp\www\elearning\qbano\__MACOSX\Views\administrativo\voz\._lib --> elearning.sandwichcubano.com /httpdocs/elearning/qbano/__MACOSX/Views/administrativo/voz ._lib
2017.03.26 20:10 B C:\wamp\www\elearning\qbano\__MACOSX\Views\administrativo\voz\._src --> elearning.sandwichcubano.com /httpdocs/elearning/qbano/__MACOSX/Views/administrativo/voz ._src
2017.03.27 21:04 B C:\wamp\www\elearning\qbano\__MACOSX\Views\administrativo\voz\._.DS_Store --> elearning.sandwichcubano.com /httpdocs/elearning/qbano/__MACOSX/Views/administrativo/voz ._.DS_Store
2017.03.27 21:04 B C:\wamp\www\elearning\qbano\__MACOSX\Views\administrativo\voz\._dist --> elearning.sandwichcubano.com /httpdocs/elearning/qbano/__MACOSX/Views/administrativo/voz ._dist
2017.03.27 21:04 B C:\wamp\www\elearning\qbano\__MACOSX\Views\administrativo\voz\._index --> elearning.sandwichcubano.com /httpdocs/elearning/qbano/__MACOSX/Views/administrativo/voz ._index
2017.03.27 21:04 B C:\wamp\www\elearning\qbano\__MACOSX\Views\administrativo\voz\._lib --> elearning.sandwichcubano.com /httpdocs/elearning/qbano/__MACOSX/Views/administrativo/voz ._lib
2017.03.27 21:04 B C:\wamp\www\elearning\qbano\__MACOSX\Views\administrativo\voz\._src --> elearning.sandwichcubano.com /httpdocs/elearning/qbano/__MACOSX/Views/administrativo/voz ._src
