2017.03.26 20:22 B C:\wamp\www\elearning\qbano\juegos\__MACOSX\juegos\juego2\documentation\__MACOSX\assets\._blueprint-css --> elearning.sandwichcubano.com /httpdocs/elearning/qbano/juegos/__MACOSX/juegos/juego2/documentation/__MACOSX/assets ._blueprint-css
2017.03.26 20:22 B C:\wamp\www\elearning\qbano\juegos\__MACOSX\juegos\juego2\documentation\__MACOSX\assets\._images --> elearning.sandwichcubano.com /httpdocs/elearning/qbano/juegos/__MACOSX/juegos/juego2/documentation/__MACOSX/assets ._images
2017.03.27 21:26 B C:\wamp\www\elearning\qbano\juegos\__MACOSX\juegos\juego2\documentation\__MACOSX\assets\._blueprint-css --> elearning.sandwichcubano.com /httpdocs/elearning/qbano/juegos/__MACOSX/juegos/juego2/documentation/__MACOSX/assets ._blueprint-css
2017.03.27 21:26 B C:\wamp\www\elearning\qbano\juegos\__MACOSX\juegos\juego2\documentation\__MACOSX\assets\._images --> elearning.sandwichcubano.com /httpdocs/elearning/qbano/juegos/__MACOSX/juegos/juego2/documentation/__MACOSX/assets ._images
2017.03.27 21:26 B C:\wamp\www\elearning\qbano\juegos\__MACOSX\juegos\juego2\documentation\__MACOSX\assets\__blueprint-css --> elearning.sandwichcubano.com /httpdocs/elearning/qbano/juegos/__MACOSX/juegos/juego2/documentation/__MACOSX/assets __blueprint-css
2017.03.27 21:26 B C:\wamp\www\elearning\qbano\juegos\__MACOSX\juegos\juego2\documentation\__MACOSX\assets\__images --> elearning.sandwichcubano.com /httpdocs/elearning/qbano/juegos/__MACOSX/juegos/juego2/documentation/__MACOSX/assets __images
