2017.03.26 20:16 B C:\wamp\www\elearning\qbano\__MACOSX\Views\temas\._agregar.php --> elearning.sandwichcubano.com /httpdocs/elearning/qbano/__MACOSX/Views/temas ._agregar.php
2017.03.26 20:16 B C:\wamp\www\elearning\qbano\__MACOSX\Views\temas\._editar.php --> elearning.sandwichcubano.com /httpdocs/elearning/qbano/__MACOSX/Views/temas ._editar.php
2017.03.26 20:16 B C:\wamp\www\elearning\qbano\__MACOSX\Views\temas\._index.php --> elearning.sandwichcubano.com /httpdocs/elearning/qbano/__MACOSX/Views/temas ._index.php
2017.03.26 20:16 B C:\wamp\www\elearning\qbano\__MACOSX\Views\temas\._ver.php --> elearning.sandwichcubano.com /httpdocs/elearning/qbano/__MACOSX/Views/temas ._ver.php
2017.03.27 21:11 B C:\wamp\www\elearning\qbano\__MACOSX\Views\temas\._agregar.php --> elearning.sandwichcubano.com /httpdocs/elearning/qbano/__MACOSX/Views/temas ._agregar.php
2017.03.27 21:11 B C:\wamp\www\elearning\qbano\__MACOSX\Views\temas\._editar.php --> elearning.sandwichcubano.com /httpdocs/elearning/qbano/__MACOSX/Views/temas ._editar.php
2017.03.27 21:11 B C:\wamp\www\elearning\qbano\__MACOSX\Views\temas\._index.php --> elearning.sandwichcubano.com /httpdocs/elearning/qbano/__MACOSX/Views/temas ._index.php
2017.03.27 21:11 B C:\wamp\www\elearning\qbano\__MACOSX\Views\temas\._ver.php --> elearning.sandwichcubano.com /httpdocs/elearning/qbano/__MACOSX/Views/temas ._ver.php
