2017.03.26 20:22 B C:\wamp\www\elearning\qbano\juegos\__MACOSX\juegos\juego2\documentation\__MACOSX\assets\blueprint-css\plugins\buttons\._icons --> elearning.sandwichcubano.com /httpdocs/elearning/qbano/juegos/__MACOSX/juegos/juego2/documentation/__MACOSX/assets/blueprint-css/plugins/buttons ._icons
2017.03.27 21:26 B C:\wamp\www\elearning\qbano\juegos\__MACOSX\juegos\juego2\documentation\__MACOSX\assets\blueprint-css\plugins\buttons\._icons --> elearning.sandwichcubano.com /httpdocs/elearning/qbano/juegos/__MACOSX/juegos/juego2/documentation/__MACOSX/assets/blueprint-css/plugins/buttons ._icons
2017.03.27 21:26 B C:\wamp\www\elearning\qbano\juegos\__MACOSX\juegos\juego2\documentation\__MACOSX\assets\blueprint-css\plugins\buttons\__icons --> elearning.sandwichcubano.com /httpdocs/elearning/qbano/juegos/__MACOSX/juegos/juego2/documentation/__MACOSX/assets/blueprint-css/plugins/buttons __icons
