2017.03.26 20:40 B C:\wamp\www\elearning\qbano\Views\qboletin\plugins\tinymce\plugins\codesample\.DS_Store --> elearning.sandwichcubano.com /httpdocs/elearning/qbano/Views/qboletin/plugins/tinymce/plugins/codesample .DS_Store
2017.03.26 20:40 B C:\wamp\www\elearning\qbano\Views\qboletin\plugins\tinymce\plugins\codesample\plugin.min.js --> elearning.sandwichcubano.com /httpdocs/elearning/qbano/Views/qboletin/plugins/tinymce/plugins/codesample plugin.min.js
2017.03.27 21:43 B C:\wamp\www\elearning\qbano\Views\qboletin\plugins\tinymce\plugins\codesample\.DS_Store --> elearning.sandwichcubano.com /httpdocs/elearning/qbano/Views/qboletin/plugins/tinymce/plugins/codesample .DS_Store
2017.03.27 21:43 B C:\wamp\www\elearning\qbano\Views\qboletin\plugins\tinymce\plugins\codesample\_DS_Store --> elearning.sandwichcubano.com /httpdocs/elearning/qbano/Views/qboletin/plugins/tinymce/plugins/codesample _DS_Store
