2017.03.26 20:16 B C:\wamp\www\elearning\qbano\__MACOSX\Views\qboletin\._.DS_Store --> elearning.sandwichcubano.com /httpdocs/elearning/qbano/__MACOSX/Views/qboletin ._.DS_Store
2017.03.26 20:16 B C:\wamp\www\elearning\qbano\__MACOSX\Views\qboletin\._css --> elearning.sandwichcubano.com /httpdocs/elearning/qbano/__MACOSX/Views/qboletin ._css
2017.03.26 20:16 B C:\wamp\www\elearning\qbano\__MACOSX\Views\qboletin\._dashboard.php --> elearning.sandwichcubano.com /httpdocs/elearning/qbano/__MACOSX/Views/qboletin ._dashboard.php
2017.03.26 20:16 B C:\wamp\www\elearning\qbano\__MACOSX\Views\qboletin\._eliminar.php --> elearning.sandwichcubano.com /httpdocs/elearning/qbano/__MACOSX/Views/qboletin ._eliminar.php
2017.03.26 20:16 B C:\wamp\www\elearning\qbano\__MACOSX\Views\qboletin\._estilos --> elearning.sandwichcubano.com /httpdocs/elearning/qbano/__MACOSX/Views/qboletin ._estilos
2017.03.26 20:16 B C:\wamp\www\elearning\qbano\__MACOSX\Views\qboletin\._index.php --> elearning.sandwichcubano.com /httpdocs/elearning/qbano/__MACOSX/Views/qboletin ._index.php
2017.03.26 20:16 B C:\wamp\www\elearning\qbano\__MACOSX\Views\qboletin\._js --> elearning.sandwichcubano.com /httpdocs/elearning/qbano/__MACOSX/Views/qboletin ._js
2017.03.26 20:16 B C:\wamp\www\elearning\qbano\__MACOSX\Views\qboletin\._plugins --> elearning.sandwichcubano.com /httpdocs/elearning/qbano/__MACOSX/Views/qboletin ._plugins
2017.03.26 20:16 B C:\wamp\www\elearning\qbano\__MACOSX\Views\qboletin\._ver.php --> elearning.sandwichcubano.com /httpdocs/elearning/qbano/__MACOSX/Views/qboletin ._ver.php
2017.03.26 20:16 B C:\wamp\www\elearning\qbano\__MACOSX\Views\qboletin\._vistaadmin.php --> elearning.sandwichcubano.com /httpdocs/elearning/qbano/__MACOSX/Views/qboletin ._vistaadmin.php
2017.03.27 21:11 B C:\wamp\www\elearning\qbano\__MACOSX\Views\qboletin\._.DS_Store --> elearning.sandwichcubano.com /httpdocs/elearning/qbano/__MACOSX/Views/qboletin ._.DS_Store
2017.03.27 21:11 B C:\wamp\www\elearning\qbano\__MACOSX\Views\qboletin\._css --> elearning.sandwichcubano.com /httpdocs/elearning/qbano/__MACOSX/Views/qboletin ._css
2017.03.27 21:11 B C:\wamp\www\elearning\qbano\__MACOSX\Views\qboletin\._dashboard.php --> elearning.sandwichcubano.com /httpdocs/elearning/qbano/__MACOSX/Views/qboletin ._dashboard.php
2017.03.27 21:11 B C:\wamp\www\elearning\qbano\__MACOSX\Views\qboletin\._eliminar.php --> elearning.sandwichcubano.com /httpdocs/elearning/qbano/__MACOSX/Views/qboletin ._eliminar.php
2017.03.27 21:11 B C:\wamp\www\elearning\qbano\__MACOSX\Views\qboletin\._estilos --> elearning.sandwichcubano.com /httpdocs/elearning/qbano/__MACOSX/Views/qboletin ._estilos
2017.03.27 21:11 B C:\wamp\www\elearning\qbano\__MACOSX\Views\qboletin\._index.php --> elearning.sandwichcubano.com /httpdocs/elearning/qbano/__MACOSX/Views/qboletin ._index.php
2017.03.27 21:11 B C:\wamp\www\elearning\qbano\__MACOSX\Views\qboletin\._js --> elearning.sandwichcubano.com /httpdocs/elearning/qbano/__MACOSX/Views/qboletin ._js
2017.03.27 21:11 B C:\wamp\www\elearning\qbano\__MACOSX\Views\qboletin\._plugins --> elearning.sandwichcubano.com /httpdocs/elearning/qbano/__MACOSX/Views/qboletin ._plugins
2017.03.27 21:11 B C:\wamp\www\elearning\qbano\__MACOSX\Views\qboletin\._ver.php --> elearning.sandwichcubano.com /httpdocs/elearning/qbano/__MACOSX/Views/qboletin ._ver.php
2017.03.27 21:11 B C:\wamp\www\elearning\qbano\__MACOSX\Views\qboletin\._vistaadmin.php --> elearning.sandwichcubano.com /httpdocs/elearning/qbano/__MACOSX/Views/qboletin ._vistaadmin.php
