2017.03.26 20:04 B C:\wamp\www\elearning\qbano\__MACOSX\Controllers\._calificacionesController.php --> elearning.sandwichcubano.com /httpdocs/elearning/qbano/__MACOSX/Controllers ._calificacionesController.php
2017.03.26 20:04 B C:\wamp\www\elearning\qbano\__MACOSX\Controllers\._cursosController.php --> elearning.sandwichcubano.com /httpdocs/elearning/qbano/__MACOSX/Controllers ._cursosController.php
2017.03.26 20:04 B C:\wamp\www\elearning\qbano\__MACOSX\Controllers\._evaluacionesController.php --> elearning.sandwichcubano.com /httpdocs/elearning/qbano/__MACOSX/Controllers ._evaluacionesController.php
2017.03.26 20:04 B C:\wamp\www\elearning\qbano\__MACOSX\Controllers\._modulosController.php --> elearning.sandwichcubano.com /httpdocs/elearning/qbano/__MACOSX/Controllers ._modulosController.php
2017.03.26 20:04 B C:\wamp\www\elearning\qbano\__MACOSX\Controllers\._preguntasConroller.php --> elearning.sandwichcubano.com /httpdocs/elearning/qbano/__MACOSX/Controllers ._preguntasConroller.php
2017.03.26 20:04 B C:\wamp\www\elearning\qbano\__MACOSX\Controllers\._qboletinController.php --> elearning.sandwichcubano.com /httpdocs/elearning/qbano/__MACOSX/Controllers ._qboletinController.php
2017.03.26 20:04 B C:\wamp\www\elearning\qbano\__MACOSX\Controllers\._seccionesController.php --> elearning.sandwichcubano.com /httpdocs/elearning/qbano/__MACOSX/Controllers ._seccionesController.php
2017.03.26 20:04 B C:\wamp\www\elearning\qbano\__MACOSX\Controllers\._temasController.php --> elearning.sandwichcubano.com /httpdocs/elearning/qbano/__MACOSX/Controllers ._temasController.php
2017.03.26 20:04 B C:\wamp\www\elearning\qbano\__MACOSX\Controllers\._tipoCursosController.php --> elearning.sandwichcubano.com /httpdocs/elearning/qbano/__MACOSX/Controllers ._tipoCursosController.php
2017.03.26 20:04 B C:\wamp\www\elearning\qbano\__MACOSX\Controllers\._tipoEvaluacionesController.php --> elearning.sandwichcubano.com /httpdocs/elearning/qbano/__MACOSX/Controllers ._tipoEvaluacionesController.php
2017.03.26 20:04 B C:\wamp\www\elearning\qbano\__MACOSX\Controllers\._tipoUsuariosCursosController.php --> elearning.sandwichcubano.com /httpdocs/elearning/qbano/__MACOSX/Controllers ._tipoUsuariosCursosController.php
2017.03.27 20:55 B C:\wamp\www\elearning\qbano\__MACOSX\Controllers\._calificacionesController.php --> elearning.sandwichcubano.com /httpdocs/elearning/qbano/__MACOSX/Controllers ._calificacionesController.php
2017.03.27 20:55 B C:\wamp\www\elearning\qbano\__MACOSX\Controllers\._cursosController.php --> elearning.sandwichcubano.com /httpdocs/elearning/qbano/__MACOSX/Controllers ._cursosController.php
2017.03.27 20:55 B C:\wamp\www\elearning\qbano\__MACOSX\Controllers\._evaluacionesController.php --> elearning.sandwichcubano.com /httpdocs/elearning/qbano/__MACOSX/Controllers ._evaluacionesController.php
2017.03.27 20:55 B C:\wamp\www\elearning\qbano\__MACOSX\Controllers\._modulosController.php --> elearning.sandwichcubano.com /httpdocs/elearning/qbano/__MACOSX/Controllers ._modulosController.php
2017.03.27 20:55 B C:\wamp\www\elearning\qbano\__MACOSX\Controllers\._preguntasConroller.php --> elearning.sandwichcubano.com /httpdocs/elearning/qbano/__MACOSX/Controllers ._preguntasConroller.php
2017.03.27 20:55 B C:\wamp\www\elearning\qbano\__MACOSX\Controllers\._qboletinController.php --> elearning.sandwichcubano.com /httpdocs/elearning/qbano/__MACOSX/Controllers ._qboletinController.php
2017.03.27 20:55 B C:\wamp\www\elearning\qbano\__MACOSX\Controllers\._seccionesController.php --> elearning.sandwichcubano.com /httpdocs/elearning/qbano/__MACOSX/Controllers ._seccionesController.php
2017.03.27 20:55 B C:\wamp\www\elearning\qbano\__MACOSX\Controllers\._temasController.php --> elearning.sandwichcubano.com /httpdocs/elearning/qbano/__MACOSX/Controllers ._temasController.php
2017.03.27 20:55 B C:\wamp\www\elearning\qbano\__MACOSX\Controllers\._tipoCursosController.php --> elearning.sandwichcubano.com /httpdocs/elearning/qbano/__MACOSX/Controllers ._tipoCursosController.php
2017.03.27 20:55 B C:\wamp\www\elearning\qbano\__MACOSX\Controllers\._tipoEvaluacionesController.php --> elearning.sandwichcubano.com /httpdocs/elearning/qbano/__MACOSX/Controllers ._tipoEvaluacionesController.php
2017.03.27 20:55 B C:\wamp\www\elearning\qbano\__MACOSX\Controllers\._tipoUsuariosCursosController.php --> elearning.sandwichcubano.com /httpdocs/elearning/qbano/__MACOSX/Controllers ._tipoUsuariosCursosController.php
