2017.03.26 20:44 B C:\wamp\www\elearning\qbano\Views\templates\.DS_Store --> elearning.sandwichcubano.com /httpdocs/elearning/qbano/Views/templates .DS_Store
2017.03.26 20:44 B C:\wamp\www\elearning\qbano\Views\templates\template.php --> elearning.sandwichcubano.com /httpdocs/elearning/qbano/Views/templates template.php
2017.03.27 21:47 B C:\wamp\www\elearning\qbano\Views\templates\.DS_Store --> elearning.sandwichcubano.com /httpdocs/elearning/qbano/Views/templates .DS_Store
2017.03.27 21:47 B C:\wamp\www\elearning\qbano\Views\templates\_DS_Store --> elearning.sandwichcubano.com /httpdocs/elearning/qbano/Views/templates _DS_Store
