2017.03.26 20:18 B C:\wamp\www\elearning\qbano\fontawesome\less\animated.less --> elearning.sandwichcubano.com /httpdocs/elearning/qbano/fontawesome/less animated.less
2017.03.26 20:18 B C:\wamp\www\elearning\qbano\fontawesome\less\bordered-pulled.less --> elearning.sandwichcubano.com /httpdocs/elearning/qbano/fontawesome/less bordered-pulled.less
2017.03.26 20:18 B C:\wamp\www\elearning\qbano\fontawesome\less\core.less --> elearning.sandwichcubano.com /httpdocs/elearning/qbano/fontawesome/less core.less
2017.03.26 20:18 B C:\wamp\www\elearning\qbano\fontawesome\less\fixed-width.less --> elearning.sandwichcubano.com /httpdocs/elearning/qbano/fontawesome/less fixed-width.less
2017.03.26 20:18 B C:\wamp\www\elearning\qbano\fontawesome\less\font-awesome.less --> elearning.sandwichcubano.com /httpdocs/elearning/qbano/fontawesome/less font-awesome.less
2017.03.26 20:18 B C:\wamp\www\elearning\qbano\fontawesome\less\icons.less --> elearning.sandwichcubano.com /httpdocs/elearning/qbano/fontawesome/less icons.less
2017.03.26 20:18 B C:\wamp\www\elearning\qbano\fontawesome\less\larger.less --> elearning.sandwichcubano.com /httpdocs/elearning/qbano/fontawesome/less larger.less
2017.03.26 20:18 B C:\wamp\www\elearning\qbano\fontawesome\less\list.less --> elearning.sandwichcubano.com /httpdocs/elearning/qbano/fontawesome/less list.less
2017.03.26 20:18 B C:\wamp\www\elearning\qbano\fontawesome\less\mixins.less --> elearning.sandwichcubano.com /httpdocs/elearning/qbano/fontawesome/less mixins.less
2017.03.26 20:18 B C:\wamp\www\elearning\qbano\fontawesome\less\path.less --> elearning.sandwichcubano.com /httpdocs/elearning/qbano/fontawesome/less path.less
2017.03.26 20:18 B C:\wamp\www\elearning\qbano\fontawesome\less\rotated-flipped.less --> elearning.sandwichcubano.com /httpdocs/elearning/qbano/fontawesome/less rotated-flipped.less
2017.03.26 20:18 B C:\wamp\www\elearning\qbano\fontawesome\less\screen-reader.less --> elearning.sandwichcubano.com /httpdocs/elearning/qbano/fontawesome/less screen-reader.less
2017.03.26 20:18 B C:\wamp\www\elearning\qbano\fontawesome\less\stacked.less --> elearning.sandwichcubano.com /httpdocs/elearning/qbano/fontawesome/less stacked.less
2017.03.26 20:18 B C:\wamp\www\elearning\qbano\fontawesome\less\variables.less --> elearning.sandwichcubano.com /httpdocs/elearning/qbano/fontawesome/less variables.less
